EESchema Schematic File Version 4
EELAYER 30 0
EELAYER END
$Descr A4 11693 8268
encoding utf-8
Sheet 1 1
Title "Temp Control"
Date "2021-12-04"
Rev "1"
Comp "-"
Comment1 "Control system  model for academic experiment "
Comment2 ""
Comment3 ""
Comment4 ""
$EndDescr
$Comp
L tempControl_modules:ESP-32 U5
U 1 1 62C2C013
P 5700 4650
F 0 "U5" H 5675 5615 50  0000 C CNN
F 1 "ESP-32" H 5675 5524 50  0000 C CNN
F 2 "" H 5650 5700 50  0001 C CNN
F 3 "" H 5650 5700 50  0001 C CNN
	1    5700 4650
	1    0    0    -1  
$EndComp
$Comp
L tempControl_modules:IRF520 U7
U 1 1 62C2CAF2
P 7750 2950
F 0 "U7" H 7750 3515 50  0000 C CNN
F 1 "IRF520" H 7750 3424 50  0000 C CNN
F 2 "" H 7800 3550 50  0001 C CNN
F 3 "" H 7800 3550 50  0001 C CNN
	1    7750 2950
	1    0    0    -1  
$EndComp
$Comp
L tempControl_modules:MAX31865 U3
U 1 1 62C2D1DD
P 3750 1800
F 0 "U3" H 3667 2465 50  0000 C CNN
F 1 "MAX31865" H 3667 2374 50  0000 C CNN
F 2 "" H 3650 2550 50  0001 C CNN
F 3 "" H 3650 2550 50  0001 C CNN
	1    3750 1800
	-1   0    0    -1  
$EndComp
$Comp
L tempControl_modules:blue_pill U4
U 1 1 62C2D406
P 5700 2400
F 0 "U4" H 5700 3615 50  0000 C CNN
F 1 "blue_pill (STM32F103)" H 5700 3524 50  0000 C CNN
F 2 "" H 5650 3700 50  0001 C CNN
F 3 "" H 5650 3700 50  0001 C CNN
	1    5700 2400
	1    0    0    -1  
$EndComp
$Comp
L tempControl_modules:Triac U6
U 1 1 62C32669
P 7700 2000
F 0 "U6" H 7817 2515 50  0000 C CNN
F 1 "Triac" H 7817 2424 50  0000 C CNN
F 2 "" H 7650 2500 50  0001 C CNN
F 3 "" H 7650 2500 50  0001 C CNN
	1    7700 2000
	1    0    0    -1  
$EndComp
$Comp
L power:GND #PWR012
U 1 1 62C3B326
P 6700 2050
F 0 "#PWR012" H 6700 1800 50  0001 C CNN
F 1 "GND" H 6705 1877 50  0000 C CNN
F 2 "" H 6700 2050 50  0001 C CNN
F 3 "" H 6700 2050 50  0001 C CNN
	1    6700 2050
	1    0    0    -1  
$EndComp
Wire Wire Line
	7250 2050 6700 2050
Wire Wire Line
	6200 1950 7250 1950
Wire Wire Line
	6200 1850 7250 1850
$Comp
L Connector:Screw_Terminal_01x02 J3
U 1 1 62C49847
P 8700 2150
F 0 "J3" H 8780 2142 50  0000 L CNN
F 1 "AC In (220V)" H 8780 2051 50  0000 L CNN
F 2 "" H 8700 2150 50  0001 C CNN
F 3 "~" H 8700 2150 50  0001 C CNN
	1    8700 2150
	1    0    0    -1  
$EndComp
$Comp
L Connector:Screw_Terminal_01x02 J2
U 1 1 62C49DC2
P 8700 1750
F 0 "J2" H 8780 1742 50  0000 L CNN
F 1 "LAMP Out" H 8780 1651 50  0000 L CNN
F 2 "" H 8700 1750 50  0001 C CNN
F 3 "~" H 8700 1750 50  0001 C CNN
	1    8700 1750
	1    0    0    -1  
$EndComp
Wire Wire Line
	8250 1750 8500 1750
Wire Wire Line
	8500 1850 8250 1850
Wire Wire Line
	8500 2150 8250 2150
Wire Wire Line
	8500 2250 8250 2250
Wire Wire Line
	4200 2150 4900 2150
Wire Wire Line
	4900 2150 4900 1950
Wire Wire Line
	4900 1950 5200 1950
Wire Wire Line
	5200 1750 4750 1750
Wire Wire Line
	4750 1750 4750 1950
Wire Wire Line
	4750 1950 4200 1950
Wire Wire Line
	5200 1650 4650 1650
Wire Wire Line
	4650 1650 4650 1850
Wire Wire Line
	4650 1850 4200 1850
Wire Wire Line
	5200 1550 4550 1550
Wire Wire Line
	4550 1550 4550 1750
Wire Wire Line
	4550 1750 4200 1750
Wire Wire Line
	5200 1450 4850 1450
Wire Wire Line
	4850 1450 4850 2050
Wire Wire Line
	4850 2050 4200 2050
$Comp
L power:GND #PWR06
U 1 1 62C5AE69
P 4400 1550
F 0 "#PWR06" H 4400 1300 50  0001 C CNN
F 1 "GND" H 4405 1377 50  0000 C CNN
F 2 "" H 4400 1550 50  0001 C CNN
F 3 "" H 4400 1550 50  0001 C CNN
	1    4400 1550
	1    0    0    -1  
$EndComp
Wire Wire Line
	4200 1550 4400 1550
Wire Wire Line
	6200 2850 7350 2850
$Comp
L power:GND #PWR015
U 1 1 62C6501E
P 7300 3200
F 0 "#PWR015" H 7300 2950 50  0001 C CNN
F 1 "GND" H 7305 3027 50  0000 C CNN
F 2 "" H 7300 3200 50  0001 C CNN
F 3 "" H 7300 3200 50  0001 C CNN
	1    7300 3200
	1    0    0    -1  
$EndComp
Wire Wire Line
	7350 3050 7300 3050
Wire Wire Line
	7300 3050 7300 3200
$Comp
L Connector:Screw_Terminal_01x02 J4
U 1 1 62C66F8F
P 8700 2650
F 0 "J4" H 8780 2642 50  0000 L CNN
F 1 "Cooler Out" H 8780 2551 50  0000 L CNN
F 2 "" H 8700 2650 50  0001 C CNN
F 3 "~" H 8700 2650 50  0001 C CNN
	1    8700 2650
	1    0    0    -1  
$EndComp
Wire Wire Line
	8150 3100 8500 3100
Wire Wire Line
	8150 3200 8500 3200
Wire Wire Line
	6200 4750 6750 4750
Wire Wire Line
	6750 4750 6750 2650
Wire Wire Line
	6750 2650 6200 2650
Wire Wire Line
	6200 2750 6650 2750
Wire Wire Line
	6650 2750 6650 4850
Wire Wire Line
	6650 4850 6200 4850
$Comp
L power:GND #PWR013
U 1 1 62C79BEB
P 6700 5250
F 0 "#PWR013" H 6700 5000 50  0001 C CNN
F 1 "GND" H 6705 5077 50  0000 C CNN
F 2 "" H 6700 5250 50  0001 C CNN
F 3 "" H 6700 5250 50  0001 C CNN
	1    6700 5250
	1    0    0    -1  
$EndComp
$Comp
L power:GND #PWR09
U 1 1 62C79F53
P 4800 5250
F 0 "#PWR09" H 4800 5000 50  0001 C CNN
F 1 "GND" H 4805 5077 50  0000 C CNN
F 2 "" H 4800 5250 50  0001 C CNN
F 3 "" H 4800 5250 50  0001 C CNN
	1    4800 5250
	1    0    0    -1  
$EndComp
Wire Wire Line
	6200 5250 6700 5250
Wire Wire Line
	4800 5250 5150 5250
$Comp
L Connector:Jack-DC J5
U 1 1 62C7D88A
P 9000 4250
F 0 "J5" H 8770 4300 50  0000 R CNN
F 1 "Jack-DC" H 8770 4209 50  0000 R CNN
F 2 "" H 9050 4210 50  0001 C CNN
F 3 "~" H 9050 4210 50  0001 C CNN
	1    9000 4250
	-1   0    0    -1  
$EndComp
$Comp
L power:+12V #PWR018
U 1 1 62C88B68
P 8500 4100
F 0 "#PWR018" H 8500 3950 50  0001 C CNN
F 1 "+12V" H 8515 4273 50  0000 C CNN
F 2 "" H 8500 4100 50  0001 C CNN
F 3 "" H 8500 4100 50  0001 C CNN
	1    8500 4100
	1    0    0    -1  
$EndComp
Wire Wire Line
	8500 4100 8500 4150
Wire Wire Line
	8500 4150 8700 4150
$Comp
L power:GND #PWR019
U 1 1 62C8E8EE
P 8500 4350
F 0 "#PWR019" H 8500 4100 50  0001 C CNN
F 1 "GND" H 8505 4177 50  0000 C CNN
F 2 "" H 8500 4350 50  0001 C CNN
F 3 "" H 8500 4350 50  0001 C CNN
	1    8500 4350
	1    0    0    -1  
$EndComp
Wire Wire Line
	8500 4350 8700 4350
Wire Wire Line
	8150 2650 8500 2650
Wire Wire Line
	8150 2750 8500 2750
$Comp
L power:GND #PWR017
U 1 1 62CA389A
P 8500 3200
F 0 "#PWR017" H 8500 2950 50  0001 C CNN
F 1 "GND" H 8505 3027 50  0000 C CNN
F 2 "" H 8500 3200 50  0001 C CNN
F 3 "" H 8500 3200 50  0001 C CNN
	1    8500 3200
	1    0    0    -1  
$EndComp
$Comp
L power:+12V #PWR016
U 1 1 62CA4A03
P 8500 3100
F 0 "#PWR016" H 8500 2950 50  0001 C CNN
F 1 "+12V" H 8515 3273 50  0000 C CNN
F 2 "" H 8500 3100 50  0001 C CNN
F 3 "" H 8500 3100 50  0001 C CNN
	1    8500 3100
	1    0    0    -1  
$EndComp
$Comp
L Regulator_Linear:LM7809_TO220 U1
U 1 1 62CB3684
P 1850 3900
F 0 "U1" H 1850 4142 50  0000 C CNN
F 1 "LM7809_TO220" H 1850 4051 50  0000 C CNN
F 2 "Package_TO_SOT_THT:TO-220-3_Vertical" H 1850 4125 50  0001 C CIN
F 3 "http://www.fairchildsemi.com/ds/LM/LM7805.pdf" H 1850 3850 50  0001 C CNN
	1    1850 3900
	1    0    0    -1  
$EndComp
$Comp
L Regulator_Linear:LM7805_TO220 U2
U 1 1 62CB3D3C
P 2900 3900
F 0 "U2" H 2900 4142 50  0000 C CNN
F 1 "LM7805_TO220" H 2900 4051 50  0000 C CNN
F 2 "Package_TO_SOT_THT:TO-220-3_Vertical" H 2900 4125 50  0001 C CIN
F 3 "http://www.fairchildsemi.com/ds/LM/LM7805.pdf" H 2900 3850 50  0001 C CNN
	1    2900 3900
	1    0    0    -1  
$EndComp
Wire Wire Line
	2150 3900 2400 3900
Wire Wire Line
	1850 4200 2400 4200
$Comp
L power:GND #PWR03
U 1 1 62CC059C
P 2400 4200
F 0 "#PWR03" H 2400 3950 50  0001 C CNN
F 1 "GND" H 2405 4027 50  0000 C CNN
F 2 "" H 2400 4200 50  0001 C CNN
F 3 "" H 2400 4200 50  0001 C CNN
	1    2400 4200
	1    0    0    -1  
$EndComp
Connection ~ 2400 4200
Wire Wire Line
	2400 4200 2900 4200
$Comp
L power:+12V #PWR01
U 1 1 62CC0D80
P 1350 3900
F 0 "#PWR01" H 1350 3750 50  0001 C CNN
F 1 "+12V" H 1365 4073 50  0000 C CNN
F 2 "" H 1350 3900 50  0001 C CNN
F 3 "" H 1350 3900 50  0001 C CNN
	1    1350 3900
	1    0    0    -1  
$EndComp
$Comp
L power:+5V #PWR04
U 1 1 62CC10C4
P 3400 3900
F 0 "#PWR04" H 3400 3750 50  0001 C CNN
F 1 "+5V" H 3415 4073 50  0000 C CNN
F 2 "" H 3400 3900 50  0001 C CNN
F 3 "" H 3400 3900 50  0001 C CNN
	1    3400 3900
	1    0    0    -1  
$EndComp
Wire Wire Line
	3400 3900 3200 3900
Wire Wire Line
	1350 3900 1550 3900
$Comp
L power:+9V #PWR02
U 1 1 62CC4528
P 2400 3900
F 0 "#PWR02" H 2400 3750 50  0001 C CNN
F 1 "+9V" H 2415 4073 50  0000 C CNN
F 2 "" H 2400 3900 50  0001 C CNN
F 3 "" H 2400 3900 50  0001 C CNN
	1    2400 3900
	1    0    0    -1  
$EndComp
Connection ~ 2400 3900
Wire Wire Line
	2400 3900 2600 3900
$Comp
L power:+5V #PWR010
U 1 1 62CC9A3D
P 4800 5700
F 0 "#PWR010" H 4800 5550 50  0001 C CNN
F 1 "+5V" H 4815 5873 50  0000 C CNN
F 2 "" H 4800 5700 50  0001 C CNN
F 3 "" H 4800 5700 50  0001 C CNN
	1    4800 5700
	1    0    0    -1  
$EndComp
Wire Wire Line
	5150 5350 5150 5700
Wire Wire Line
	5150 5700 4800 5700
$Comp
L power:+5V #PWR07
U 1 1 62CD14F3
P 4750 3150
F 0 "#PWR07" H 4750 3000 50  0001 C CNN
F 1 "+5V" H 4765 3323 50  0000 C CNN
F 2 "" H 4750 3150 50  0001 C CNN
F 3 "" H 4750 3150 50  0001 C CNN
	1    4750 3150
	1    0    0    -1  
$EndComp
$Comp
L power:GND #PWR08
U 1 1 62CD1C2A
P 4750 3250
F 0 "#PWR08" H 4750 3000 50  0001 C CNN
F 1 "GND" H 4755 3077 50  0000 C CNN
F 2 "" H 4750 3250 50  0001 C CNN
F 3 "" H 4750 3250 50  0001 C CNN
	1    4750 3250
	1    0    0    -1  
$EndComp
Wire Wire Line
	4750 3250 5200 3250
Wire Wire Line
	5200 3150 4750 3150
$Comp
L Connector:Screw_Terminal_01x04 J1
U 1 1 62CE0E7B
P 2750 1850
F 0 "J1" H 2668 1425 50  0000 C CNN
F 1 "PT100" H 2668 1516 50  0000 C CNN
F 2 "" H 2750 1850 50  0001 C CNN
F 3 "~" H 2750 1850 50  0001 C CNN
	1    2750 1850
	-1   0    0    1   
$EndComp
Wire Wire Line
	2950 1650 3100 1650
Wire Wire Line
	3100 1650 3100 1550
Wire Wire Line
	3100 1550 3350 1550
Wire Wire Line
	3350 1700 3150 1700
Wire Wire Line
	3150 1700 3150 1750
Wire Wire Line
	3150 1750 2950 1750
Wire Wire Line
	2950 1850 3150 1850
Wire Wire Line
	3150 1850 3150 1900
Wire Wire Line
	3150 1900 3350 1900
Wire Wire Line
	3350 2050 3100 2050
Wire Wire Line
	3100 2050 3100 1950
Wire Wire Line
	3100 1950 2950 1950
$Comp
L power:+3.3V #PWR011
U 1 1 62D0215C
P 6500 1650
F 0 "#PWR011" H 6500 1500 50  0001 C CNN
F 1 "+3.3V" H 6515 1823 50  0000 C CNN
F 2 "" H 6500 1650 50  0001 C CNN
F 3 "" H 6500 1650 50  0001 C CNN
	1    6500 1650
	1    0    0    -1  
$EndComp
Wire Wire Line
	6200 1650 6500 1650
$Comp
L power:+3.3V #PWR014
U 1 1 62D142EB
P 7000 2350
F 0 "#PWR014" H 7000 2200 50  0001 C CNN
F 1 "+3.3V" H 7015 2523 50  0000 C CNN
F 2 "" H 7000 2350 50  0001 C CNN
F 3 "" H 7000 2350 50  0001 C CNN
	1    7000 2350
	1    0    0    -1  
$EndComp
Wire Wire Line
	7250 2150 7250 2350
Wire Wire Line
	7250 2350 7000 2350
$Comp
L power:+5V #PWR05
U 1 1 62D2A00C
P 4300 1350
F 0 "#PWR05" H 4300 1200 50  0001 C CNN
F 1 "+5V" H 4315 1523 50  0000 C CNN
F 2 "" H 4300 1350 50  0001 C CNN
F 3 "" H 4300 1350 50  0001 C CNN
	1    4300 1350
	1    0    0    -1  
$EndComp
Wire Wire Line
	4300 1350 4300 1450
Wire Wire Line
	4300 1450 4200 1450
$EndSCHEMATC
